{
  "tutorials": [
    {
      "title": "fdgdd",
      "description": "kjlk,kr,lk,lk",
      "id": 2
    },
    {
      "title": "Junior est mon fils adoré",
      "description": "Gère les magasin des entreprots",
      "id": 3,
      "published": true
    },
    {
      "title": "ddd",
      "description": "qsqsdsddqsqsd",
      "id": 4,
      "published": true
    },
    {
      "title": "Junior est mon fils adoré",
      "description": "azkjazlkjazlk",
      "id": 5
    }
  ]
}